Task xử lý API tại administrative_form:
1. Tại trường patientId sẽ xử dụng API, lấy dữ liệu để hiển thị ra một danh sách patientId, người dùng có thể chọn. Có thể giới hạn hiển thị 5-10 phần tử, nếu có nhiều hơn thì người dùng sẽ scroll để hiển thị thêm:
- api/pt/v1/individuals/patients/patientId?q=&size=0&page=1
- Responsive: {
    "data": [
        {
            "id": 52588,
            "patientId": "26082024",
            "name": " TEST 01",
            "dob": "2003-04-16T00:00:00",
            "dobName": "16-04-2003",
            "gender": "F",
            "genderName": "Nữ",
            "remark": null,
            "phoneNumber": null,
            "address": "TEST - Hà Nội",
            "fullAddress": "TEST - Hà Nội, Phường Phúc Xá, Quận Ba Đình, Thành phố Hà Nội",
            "nationalId": null,
            "ward": "00001",
            "wardName": "Phường Phúc Xá",
            "district": "001",
            "districtName": "Quận Ba Đình",
            "province": "01",
            "provinceName": "Thành phố Hà Nội",
            "country": "VN",
            "countryName": "Việt Nam",
            "managementCompanyId": 1,
            "profileName": "Bệnh Nhân",
            "createdDate": "2024-08-26T08:54:53.8281672",
            "fields": "[{\"FieldCode\":\"MaritalStatus\",\"LookSequence\":1},{\"FieldCode\":\"ManagementCompanyId\",\"LookSequence\":1},{\"FieldCode\":\"PatientId\",\"LookSequence\":1},{\"FieldCode\":\"Department\",\"LookSequence\":1},{\"FieldCode\":\"Gender\",\"LookSequence\":7},{\"FieldCode\":\"Nationality\",\"LookSequence\":7},{\"FieldCode\":\"Contact.PhoneNumber\",\"LookSequence\":7},{\"FieldCode\":\"Address.Address\",\"LookSequence\":8},{\"FieldCode\":\"DOB\",\"LookSequence\":10}]",
            "contactFields": "[{\"ContactRoleName\":\"Chính chủ\",\"Id\":46932,\"PartyId\":52588,\"ContactRole\":\"01\",\"EmailAddress\":\"\",\"IsDefault\":true,\"Status\":true,\"CreatedBy\":1000185,\"CreatedDate\":\"2024-08-26T08:54:54.4212232\",\"UpdatedBy\":999999,\"UpdatedDate\":\"2025-07-06T11:08:14.6752401\"}]",
            "addressFields": "[{\"TypeName\":\"Nhà\",\"Id\":52429,\"PartyId\":52588,\"Type\":\"1\",\"Address\":\"TEST - Hà Nội\",\"Ward\":\"00001\",\"District\":\"001\",\"Province\":\"01\",\"Country\":\"VN\",\"IsDefault\":true,\"Status\":true,\"CreatedBy\":1000185,\"CreatedDate\":\"2024-08-26T08:54:54.3744369\",\"UpdatedBy\":999999,\"UpdatedDate\":\"2025-07-06T11:08:14.6513402\"}]",
            "furtherValue": "[{\"FurtherValue\":\" TEST 01\",\"FieldCode\":\"FullName\"}]"
        },
        ...
    ],
    "page": 1,
    "size": 5,
    "totalElements": 221,
    "totalPages": 45,
    "last": false
}

2. Khi người dùng chọn một trong các item ở task 1 thì các trường sau sẽ được tự động fill dữ liệu: 
- _fullNameController (name), _selectedGender (gender), _dateOfBirth(dob), _addressController(address), _age(tự tính toán dựa vào _dateOfBirth)
- _cccdController (không fill dữ liệu mà sẽ bị disable đi)
- _appointmentDate sẽ được mặc định là ngày hiện tại
- Chú thích các trường trong () sẽ là trường của item api trả về

3. Trường _selectedServiceObject sẽ xử dụng API: api/ms/v1/parameters/{code}/codes (api này đã có sẵn)
- (code) = L125
- Sẽ dùng trường message để làm thông tin hiển thị, và giá trị sẽ dùng trường code

4. Trường _selectedDepartment sẽ dùng API này: api/ms/v1/departments
- queryParams: size = 0,
- Sẽ tự handle tìm kiếm ở client với dữ liệu lấy lên từ API, serch theo name
- response t: {
    "data": [
        {
            "id": 1,
            "companyId": 1,
            "companyName": "IOLIS",
            "name": "MEDIPLUS",
            "managedCode": "MEDI",
            "parentDepartmentId": 0,
            "type": "D",
            "typeName": "Khoa",
            "remark": "",
            "status": true,
            "countUser": 0
        },
        ....
    ],
    "page": 1,
    "size": 0,
    "totalElements": 154,
    "totalPages": -2147483648,
    "last": true
}

5. Bên phần services_tab sẽ sử dụng api: api/la/v1/tests
- params: size = 0, page = 1, inUse = true
- response: {
    "data": [
        {
            "id": 4185,
            "testCode": "4857",
            "testName": "Định lượng Triglycerid",
            "shortName": null,
            "quickCode": null,
            "customName": "dịch chọc dò",
            "profileId": "",
            "profileName": "",
            "code": "",
            "type": 0,
            "typeName": null,
            "sampleType": "C",
            "sampleTypeName": "Máu [Citrat 3.2%]",
            "category": "0",
            "categoryName": "KHÔNG XÁC ĐỊNH > KHÔNG XÁC ĐỊNH",
            "displayOrder": 0,
            "tags": null,
            "remark": null,
            "inUse": true,
            "testConfigCount": 0,
            "testMethod": null,
            "iso": false,
            "vendorCode": null,
            "vendorName": null,
            "vendorId": null,
            "createdBy": 1000001,
            "createdDate": "2024-10-02T10:36:29.3920246",
            "updatedBy": 1000185,
            "updatedDate": "2025-04-04T16:41:37.6527437",
            "addtionalInfos": null,
            "reportTypeName": "Giải phẫu bệnh",
            "reportType": "GPB",
            "unit": "",
            "mbNumTypeName": null,
            "mbNumType": null,
            "subSID": null,
            "isQC": true
        },
        ...
    ],
    "page": 1,
    "size": 0,
    "totalElements": 1474,
    "totalPages": -2147483648,
    "last": true
}

- Khi chọn dịch vụ bên tab này, thì đồng thời bên samples_tab cũng sẽ được thêm vào một phần tử với dữ liệu 



Task: 
1. Please check the entire src code for me, why when clicking on the fields to enter data, or any field that requires opening the keyboard, the keyboard opens jerkily and laggy (from the login section).
2. As attached image, why can't I scroll up when touching the service list or the white space below. Only when touching the service selection bar can I scroll. Please fix it for me.
3. Replace all custom dropdowns (in manual service) using dropdown_search library